C:\Users\mirlab\AppData\Local\Programs\Python\Python37\python.exe C:/Users/mirlab/Desktop/ivector-xvector/ivector/main.py
WARNING:root:WARNNG: libsvm is not installed, please refer to the documentation if you intend to use SVM classifiers
Converting Audio: 100%|██████████| 20/20 [00:00<00:00, 159.99it/s]
Copying enroll/test waves: 100%|██████████| 1413/1413 [00:00<00:00, 2209.93it/s]
Creating Test Cases: 100%|██████████| 20/20 [00:00<?, ?it/s]
DONE!!
Iteration #1: 100%|██████████| 1/1 [00:20<00:00, 20.54s/it]
Iteration #2: 100%|██████████| 2/2 [00:40<00:00, 20.33s/it]
Iteration #2: 100%|██████████| 2/2 [00:40<00:00, 20.40s/it]
Iteration #4: 100%|██████████| 4/4 [01:21<00:00, 20.40s/it]
Iteration #4: 100%|██████████| 4/4 [01:24<00:00, 21.21s/it]
Iteration #4: 100%|██████████| 4/4 [01:31<00:00, 23.00s/it]
Iteration #1: 100%|██████████| 6/6 [00:00<00:00, 12.69it/s]
Iteration #2: 100%|██████████| 6/6 [00:00<00:00, 12.63it/s]
Iteration #3: 100%|██████████| 6/6 [00:00<00:00, 14.14it/s]
Iteration #4: 100%|██████████| 6/6 [00:00<00:00, 13.77it/s]
Iteration #5: 100%|██████████| 6/6 [00:00<00:00, 14.39it/s]
Iteration #6: 100%|██████████| 6/6 [00:00<00:00, 14.86it/s]
Iteration #7: 100%|██████████| 6/6 [00:00<00:00, 13.68it/s]
Iteration #8: 100%|██████████| 6/6 [00:00<00:00, 14.22it/s]
Iteration #9: 100%|██████████| 6/6 [00:00<00:00, 13.94it/s]
Iteration #10: 100%|██████████| 6/6 [00:00<00:00, 13.12it/s]
Iteration #11: 100%|██████████| 6/6 [00:00<00:00, 13.28it/s]
Iteration #12: 100%|██████████| 6/6 [00:00<00:00, 12.91it/s]
Iteration #13: 100%|██████████| 6/6 [00:00<00:00, 13.60it/s]
Iteration #14: 100%|██████████| 6/6 [00:00<00:00, 13.71it/s]
Iteration #15: 100%|██████████| 6/6 [00:00<00:00, 14.11it/s]
Iteration #16: 100%|██████████| 6/6 [00:00<00:00, 13.41it/s]
Iteration #17: 100%|██████████| 6/6 [00:00<00:00, 13.32it/s]
Iteration #18: 100%|██████████| 6/6 [00:00<00:00, 14.39it/s]
Iteration #19: 100%|██████████| 6/6 [00:00<00:00, 13.86it/s]
Iteration #20: 100%|██████████| 6/6 [00:00<00:00, 14.00it/s]
Iteration #21: 100%|██████████| 6/6 [00:00<00:00, 14.60it/s]
Iteration #22: 100%|██████████| 6/6 [00:00<00:00, 13.62it/s]
Iteration #23: 100%|██████████| 6/6 [00:00<00:00, 13.08it/s]
Iteration #24: 100%|██████████| 6/6 [00:00<00:00, 12.85it/s]
Iteration #25: 100%|██████████| 6/6 [00:00<00:00, 12.18it/s]
Iteration #26: 100%|██████████| 6/6 [00:00<00:00, 13.68it/s]
Iteration #27: 100%|██████████| 6/6 [00:00<00:00, 12.74it/s]
Iteration #28: 100%|██████████| 6/6 [00:00<00:00, 12.74it/s]
Iteration #29: 100%|██████████| 6/6 [00:00<00:00, 12.67it/s]
Iteration #30: 100%|██████████| 6/6 [00:00<00:00, 14.39it/s]
Iteration #31: 100%|██████████| 6/6 [00:00<00:00, 13.34it/s]
Iteration #32: 100%|██████████| 6/6 [00:00<00:00, 14.73it/s]
Iteration #33: 100%|██████████| 6/6 [00:00<00:00, 14.19it/s]
Iteration #34: 100%|██████████| 6/6 [00:00<00:00, 12.93it/s]
Iteration #35: 100%|██████████| 6/6 [00:00<00:00, 13.39it/s]
Iteration #36: 100%|██████████| 6/6 [00:00<00:00, 13.58it/s]
Iteration #37: 100%|██████████| 6/6 [00:00<00:00, 13.68it/s]
Iteration #38: 100%|██████████| 6/6 [00:00<00:00, 13.59it/s]
Iteration #39: 100%|██████████| 6/6 [00:00<00:00, 14.64it/s]
Iteration #40: 100%|██████████| 6/6 [00:00<00:00, 14.29it/s]
Iteration #41: 100%|██████████| 6/6 [00:00<00:00, 14.18it/s]
Iteration #42: 100%|██████████| 6/6 [00:00<00:00, 14.09it/s]
Iteration #43: 100%|██████████| 6/6 [00:00<00:00, 14.19it/s]
Iteration #44: 100%|██████████| 6/6 [00:00<00:00, 14.29it/s]
Iteration #45: 100%|██████████| 6/6 [00:00<00:00, 14.36it/s]
Iteration #46: 100%|██████████| 6/6 [00:00<00:00, 13.68it/s]
Iteration #47: 100%|██████████| 6/6 [00:00<00:00, 14.09it/s]
Iteration #48: 100%|██████████| 6/6 [00:00<00:00, 13.71it/s]
Iteration #49: 100%|██████████| 6/6 [00:00<00:00, 14.09it/s]
Iteration #50: 100%|██████████| 6/6 [00:00<00:00, 14.29it/s]
Processing: 100%|██████████| 160/160 [00:00<00:00, 423.98it/s]
Processing: 100%|██████████| 40/40 [00:00<00:00, 512.05it/s]
Accuracy: 22.5%

Process finished with exit code 0
